%YAML 1.1
%TAG !u! tag:unity3d.com,2011:
--- !u!21 &2100000
Material:
  serializedVersion: 6
  m_ObjectHideFlags: 0
  m_CorrespondingSourceObject: {fileID: 0}
  m_PrefabInstance: {fileID: 0}
  m_PrefabAsset: {fileID: 0}
  m_Name: GlowTest
  m_Shader: {fileID: -6465566751694194690, guid: 7584e233f4d927b459e43c3cdfecb076,
    type: 3}
  m_ShaderKeywords: 
  m_LightmapFlags: 2
  m_EnableInstancingVariants: 0
  m_DoubleSidedGI: 0
  m_CustomRenderQueue: -1
  stringTagMap: {}
  disabledShaderPasses: []
  m_SavedProperties:
    serializedVersion: 3
    m_TexEnvs:
    - Texture2D_C93670CD:
        m_Texture: {fileID: 2800000, guid: e109905c411b0f84e82eaaf2705ece30, type: 3}
        m_Scale: {x: 1, y: 1}
        m_Offset: {x: 0, y: 0}
    - Texture2D_D5ACBCDB:
        m_Texture: {fileID: 2800000, guid: e109905c411b0f84e82eaaf2705ece30, type: 3}
        m_Scale: {x: 1, y: 1}
        m_Offset: {x: 0, y: 0}
    m_Floats:
    - GlowOn: 0
    m_Colors:
    - Color_97DDE080: {r: 11.545098, g: 11.984314, b: 0, a: 0.003921569}
    - Color_A3B49E56: {r: 0, g: 1, b: 0.052033424, a: 0}
