%YAML 1.1
%TAG !u! tag:unity3d.com,2011:
--- !u!1 &1791540830972563136
GameObject:
  m_ObjectHideFlags: 0
  m_CorrespondingSourceObject: {fileID: 0}
  m_PrefabInstance: {fileID: 0}
  m_PrefabAsset: {fileID: 0}
  serializedVersion: 6
  m_Component:
  - component: {fileID: 6660334477667546089}
  - component: {fileID: 2030191786982121895}
  - component: {fileID: 3362872022491597326}
  - component: {fileID: 8999990599305561318}
  m_Layer: 10
  m_Name: Canvas
  m_TagString: Untagged
  m_Icon: {fileID: 0}
  m_NavMeshLayer: 0
  m_StaticEditorFlags: 0
  m_IsActive: 1
--- !u!224 &6660334477667546089
RectTransform:
  m_ObjectHideFlags: 0
  m_CorrespondingSourceObject: {fileID: 0}
  m_PrefabInstance: {fileID: 0}
  m_PrefabAsset: {fileID: 0}
  m_GameObject: {fileID: 1791540830972563136}
  m_LocalRotation: {x: 0, y: 0, z: 0, w: 1}
  m_LocalPosition: {x: 0, y: 0, z: 0}
  m_LocalScale: {x: 0.00030341, y: 0.00030341, z: 0.0030341}
  m_Children:
  - {fileID: 7190253509721890450}
  - {fileID: 3847303488652981383}
  - {fileID: 3647729745251258537}
  m_Father: {fileID: 0}
  m_RootOrder: 0
  m_LocalEulerAnglesHint: {x: 0, y: 0, z: 0}
  m_AnchorMin: {x: 0, y: 0}
  m_AnchorMax: {x: 0, y: 0}
  m_AnchoredPosition: {x: 0, y: 0}
  m_SizeDelta: {x: 1517, y: 853}
  m_Pivot: {x: 0.5, y: 0.5}
--- !u!223 &2030191786982121895
Canvas:
  m_ObjectHideFlags: 0
  m_CorrespondingSourceObject: {fileID: 0}
  m_PrefabInstance: {fileID: 0}
  m_PrefabAsset: {fileID: 0}
  m_GameObject: {fileID: 1791540830972563136}
  m_Enabled: 1
  serializedVersion: 3
  m_RenderMode: 2
  m_Camera: {fileID: 0}
  m_PlaneDistance: 100
  m_PixelPerfect: 1
  m_ReceivesEvents: 1
  m_OverrideSorting: 0
  m_OverridePixelPerfect: 0
  m_SortingBucketNormalizedSize: 0
  m_AdditionalShaderChannelsFlag: 0
  m_SortingLayerID: 0
  m_SortingOrder: 0
  m_TargetDisplay: 0
--- !u!114 &3362872022491597326
MonoBehaviour:
  m_ObjectHideFlags: 0
  m_CorrespondingSourceObject: {fileID: 0}
  m_PrefabInstance: {fileID: 0}
  m_PrefabAsset: {fileID: 0}
  m_GameObject: {fileID: 1791540830972563136}
  m_Enabled: 1
  m_EditorHideFlags: 0
  m_Script: {fileID: 11500000, guid: 0cd44c1031e13a943bb63640046fad76, type: 3}
  m_Name: 
  m_EditorClassIdentifier: 
  m_UiScaleMode: 0
  m_ReferencePixelsPerUnit: 100
  m_ScaleFactor: 1
  m_ReferenceResolution: {x: 800, y: 600}
  m_ScreenMatchMode: 0
  m_MatchWidthOrHeight: 0
  m_PhysicalUnit: 3
  m_FallbackScreenDPI: 96
  m_DefaultSpriteDPI: 96
  m_DynamicPixelsPerUnit: 1
--- !u!114 &8999990599305561318
MonoBehaviour:
  m_ObjectHideFlags: 0
  m_CorrespondingSourceObject: {fileID: 0}
  m_PrefabInstance: {fileID: 0}
  m_PrefabAsset: {fileID: 0}
  m_GameObject: {fileID: 1791540830972563136}
  m_Enabled: 1
  m_EditorHideFlags: 0
  m_Script: {fileID: 11500000, guid: dc42784cf147c0c48a680349fa168899, type: 3}
  m_Name: 
  m_EditorClassIdentifier: 
  m_IgnoreReversedGraphics: 1
  m_BlockingObjects: 0
  m_BlockingMask:
    serializedVersion: 2
    m_Bits: 4294967295
--- !u!1001 &3677505152036322323
PrefabInstance:
  m_ObjectHideFlags: 0
  serializedVersion: 2
  m_Modification:
    m_TransformParent: {fileID: 6660334477667546089}
    m_Modifications:
    - target: {fileID: 4878515411916125830, guid: 265efe6460d31474ba13e1671e516f1e,
        type: 3}
      propertyPath: m_Name
      value: Response
      objectReference: {fileID: 0}
    - target: {fileID: 5819202721268474497, guid: 265efe6460d31474ba13e1671e516f1e,
        type: 3}
      propertyPath: m_LocalPosition.x
      value: 0
      objectReference: {fileID: 0}
    - target: {fileID: 5819202721268474497, guid: 265efe6460d31474ba13e1671e516f1e,
        type: 3}
      propertyPath: m_LocalPosition.y
      value: 0
      objectReference: {fileID: 0}
    - target: {fileID: 5819202721268474497, guid: 265efe6460d31474ba13e1671e516f1e,
        type: 3}
      propertyPath: m_LocalPosition.z
      value: 0
      objectReference: {fileID: 0}
    - target: {fileID: 5819202721268474497, guid: 265efe6460d31474ba13e1671e516f1e,
        type: 3}
      propertyPath: m_LocalRotation.x
      value: 0
      objectReference: {fileID: 0}
    - target: {fileID: 5819202721268474497, guid: 265efe6460d31474ba13e1671e516f1e,
        type: 3}
      propertyPath: m_LocalRotation.y
      value: 0
      objectReference: {fileID: 0}
    - target: {fileID: 5819202721268474497, guid: 265efe6460d31474ba13e1671e516f1e,
        type: 3}
      propertyPath: m_LocalRotation.z
      value: 0
      objectReference: {fileID: 0}
    - target: {fileID: 5819202721268474497, guid: 265efe6460d31474ba13e1671e516f1e,
        type: 3}
      propertyPath: m_LocalRotation.w
      value: 1
      objectReference: {fileID: 0}
    - target: {fileID: 5819202721268474497, guid: 265efe6460d31474ba13e1671e516f1e,
        type: 3}
      propertyPath: m_RootOrder
      value: 0
      objectReference: {fileID: 0}
    - target: {fileID: 5819202721268474497, guid: 265efe6460d31474ba13e1671e516f1e,
        type: 3}
      propertyPath: m_LocalEulerAnglesHint.x
      value: 0
      objectReference: {fileID: 0}
    - target: {fileID: 5819202721268474497, guid: 265efe6460d31474ba13e1671e516f1e,
        type: 3}
      propertyPath: m_LocalEulerAnglesHint.y
      value: 0
      objectReference: {fileID: 0}
    - target: {fileID: 5819202721268474497, guid: 265efe6460d31474ba13e1671e516f1e,
        type: 3}
      propertyPath: m_LocalEulerAnglesHint.z
      value: 0
      objectReference: {fileID: 0}
    - target: {fileID: 5819202721268474497, guid: 265efe6460d31474ba13e1671e516f1e,
        type: 3}
      propertyPath: m_AnchoredPosition.x
      value: 758.54
      objectReference: {fileID: 0}
    - target: {fileID: 5819202721268474497, guid: 265efe6460d31474ba13e1671e516f1e,
        type: 3}
      propertyPath: m_AnchoredPosition.y
      value: 676.4
      objectReference: {fileID: 0}
    - target: {fileID: 5819202721268474497, guid: 265efe6460d31474ba13e1671e516f1e,
        type: 3}
      propertyPath: m_SizeDelta.x
      value: 1517.0481
      objectReference: {fileID: 0}
    - target: {fileID: 5819202721268474497, guid: 265efe6460d31474ba13e1671e516f1e,
        type: 3}
      propertyPath: m_SizeDelta.y
      value: 191.9379
      objectReference: {fileID: 0}
    - target: {fileID: 5819202721268474497, guid: 265efe6460d31474ba13e1671e516f1e,
        type: 3}
      propertyPath: m_AnchorMin.x
      value: 0
      objectReference: {fileID: 0}
    - target: {fileID: 5819202721268474497, guid: 265efe6460d31474ba13e1671e516f1e,
        type: 3}
      propertyPath: m_AnchorMin.y
      value: 0
      objectReference: {fileID: 0}
    - target: {fileID: 5819202721268474497, guid: 265efe6460d31474ba13e1671e516f1e,
        type: 3}
      propertyPath: m_AnchorMax.x
      value: 0
      objectReference: {fileID: 0}
    - target: {fileID: 5819202721268474497, guid: 265efe6460d31474ba13e1671e516f1e,
        type: 3}
      propertyPath: m_AnchorMax.y
      value: 0
      objectReference: {fileID: 0}
    - target: {fileID: 5819202721268474497, guid: 265efe6460d31474ba13e1671e516f1e,
        type: 3}
      propertyPath: m_Pivot.x
      value: 0.5
      objectReference: {fileID: 0}
    - target: {fileID: 5819202721268474497, guid: 265efe6460d31474ba13e1671e516f1e,
        type: 3}
      propertyPath: m_Pivot.y
      value: 0.5
      objectReference: {fileID: 0}
    m_RemovedComponents: []
  m_SourcePrefab: {fileID: 100100000, guid: 265efe6460d31474ba13e1671e516f1e, type: 3}
--- !u!224 &7190253509721890450 stripped
RectTransform:
  m_CorrespondingSourceObject: {fileID: 5819202721268474497, guid: 265efe6460d31474ba13e1671e516f1e,
    type: 3}
  m_PrefabInstance: {fileID: 3677505152036322323}
  m_PrefabAsset: {fileID: 0}
--- !u!1001 &7088279796104458792
PrefabInstance:
  m_ObjectHideFlags: 0
  serializedVersion: 2
  m_Modification:
    m_TransformParent: {fileID: 6660334477667546089}
    m_Modifications:
    - target: {fileID: 4878515411916125830, guid: 265efe6460d31474ba13e1671e516f1e,
        type: 3}
      propertyPath: m_Name
      value: Response (2)
      objectReference: {fileID: 0}
    - target: {fileID: 5819202721268474497, guid: 265efe6460d31474ba13e1671e516f1e,
        type: 3}
      propertyPath: m_LocalPosition.x
      value: 0
      objectReference: {fileID: 0}
    - target: {fileID: 5819202721268474497, guid: 265efe6460d31474ba13e1671e516f1e,
        type: 3}
      propertyPath: m_LocalPosition.y
      value: 0
      objectReference: {fileID: 0}
    - target: {fileID: 5819202721268474497, guid: 265efe6460d31474ba13e1671e516f1e,
        type: 3}
      propertyPath: m_LocalPosition.z
      value: 0
      objectReference: {fileID: 0}
    - target: {fileID: 5819202721268474497, guid: 265efe6460d31474ba13e1671e516f1e,
        type: 3}
      propertyPath: m_LocalRotation.x
      value: 0
      objectReference: {fileID: 0}
    - target: {fileID: 5819202721268474497, guid: 265efe6460d31474ba13e1671e516f1e,
        type: 3}
      propertyPath: m_LocalRotation.y
      value: 0
      objectReference: {fileID: 0}
    - target: {fileID: 5819202721268474497, guid: 265efe6460d31474ba13e1671e516f1e,
        type: 3}
      propertyPath: m_LocalRotation.z
      value: 0
      objectReference: {fileID: 0}
    - target: {fileID: 5819202721268474497, guid: 265efe6460d31474ba13e1671e516f1e,
        type: 3}
      propertyPath: m_LocalRotation.w
      value: 1
      objectReference: {fileID: 0}
    - target: {fileID: 5819202721268474497, guid: 265efe6460d31474ba13e1671e516f1e,
        type: 3}
      propertyPath: m_RootOrder
      value: 2
      objectReference: {fileID: 0}
    - target: {fileID: 5819202721268474497, guid: 265efe6460d31474ba13e1671e516f1e,
        type: 3}
      propertyPath: m_LocalEulerAnglesHint.x
      value: 0
      objectReference: {fileID: 0}
    - target: {fileID: 5819202721268474497, guid: 265efe6460d31474ba13e1671e516f1e,
        type: 3}
      propertyPath: m_LocalEulerAnglesHint.y
      value: 0
      objectReference: {fileID: 0}
    - target: {fileID: 5819202721268474497, guid: 265efe6460d31474ba13e1671e516f1e,
        type: 3}
      propertyPath: m_LocalEulerAnglesHint.z
      value: 0
      objectReference: {fileID: 0}
    - target: {fileID: 5819202721268474497, guid: 265efe6460d31474ba13e1671e516f1e,
        type: 3}
      propertyPath: m_AnchoredPosition.x
      value: 758.54
      objectReference: {fileID: 0}
    - target: {fileID: 5819202721268474497, guid: 265efe6460d31474ba13e1671e516f1e,
        type: 3}
      propertyPath: m_AnchoredPosition.y
      value: 151
      objectReference: {fileID: 0}
    - target: {fileID: 5819202721268474497, guid: 265efe6460d31474ba13e1671e516f1e,
        type: 3}
      propertyPath: m_SizeDelta.x
      value: 1517.0481
      objectReference: {fileID: 0}
    - target: {fileID: 5819202721268474497, guid: 265efe6460d31474ba13e1671e516f1e,
        type: 3}
      propertyPath: m_SizeDelta.y
      value: 191.9379
      objectReference: {fileID: 0}
    - target: {fileID: 5819202721268474497, guid: 265efe6460d31474ba13e1671e516f1e,
        type: 3}
      propertyPath: m_AnchorMin.x
      value: 0
      objectReference: {fileID: 0}
    - target: {fileID: 5819202721268474497, guid: 265efe6460d31474ba13e1671e516f1e,
        type: 3}
      propertyPath: m_AnchorMin.y
      value: 0
      objectReference: {fileID: 0}
    - target: {fileID: 5819202721268474497, guid: 265efe6460d31474ba13e1671e516f1e,
        type: 3}
      propertyPath: m_AnchorMax.x
      value: 0
      objectReference: {fileID: 0}
    - target: {fileID: 5819202721268474497, guid: 265efe6460d31474ba13e1671e516f1e,
        type: 3}
      propertyPath: m_AnchorMax.y
      value: 0
      objectReference: {fileID: 0}
    - target: {fileID: 5819202721268474497, guid: 265efe6460d31474ba13e1671e516f1e,
        type: 3}
      propertyPath: m_Pivot.x
      value: 0.5
      objectReference: {fileID: 0}
    - target: {fileID: 5819202721268474497, guid: 265efe6460d31474ba13e1671e516f1e,
        type: 3}
      propertyPath: m_Pivot.y
      value: 0.5
      objectReference: {fileID: 0}
    m_RemovedComponents: []
  m_SourcePrefab: {fileID: 100100000, guid: 265efe6460d31474ba13e1671e516f1e, type: 3}
--- !u!224 &3647729745251258537 stripped
RectTransform:
  m_CorrespondingSourceObject: {fileID: 5819202721268474497, guid: 265efe6460d31474ba13e1671e516f1e,
    type: 3}
  m_PrefabInstance: {fileID: 7088279796104458792}
  m_PrefabAsset: {fileID: 0}
--- !u!1001 &7324445261919000070
PrefabInstance:
  m_ObjectHideFlags: 0
  serializedVersion: 2
  m_Modification:
    m_TransformParent: {fileID: 6660334477667546089}
    m_Modifications:
    - target: {fileID: 4878515411916125830, guid: 265efe6460d31474ba13e1671e516f1e,
        type: 3}
      propertyPath: m_Name
      value: Response (1)
      objectReference: {fileID: 0}
    - target: {fileID: 5819202721268474497, guid: 265efe6460d31474ba13e1671e516f1e,
        type: 3}
      propertyPath: m_LocalPosition.x
      value: 0
      objectReference: {fileID: 0}
    - target: {fileID: 5819202721268474497, guid: 265efe6460d31474ba13e1671e516f1e,
        type: 3}
      propertyPath: m_LocalPosition.y
      value: 0
      objectReference: {fileID: 0}
    - target: {fileID: 5819202721268474497, guid: 265efe6460d31474ba13e1671e516f1e,
        type: 3}
      propertyPath: m_LocalPosition.z
      value: 0
      objectReference: {fileID: 0}
    - target: {fileID: 5819202721268474497, guid: 265efe6460d31474ba13e1671e516f1e,
        type: 3}
      propertyPath: m_LocalRotation.x
      value: 0
      objectReference: {fileID: 0}
    - target: {fileID: 5819202721268474497, guid: 265efe6460d31474ba13e1671e516f1e,
        type: 3}
      propertyPath: m_LocalRotation.y
      value: 0
      objectReference: {fileID: 0}
    - target: {fileID: 5819202721268474497, guid: 265efe6460d31474ba13e1671e516f1e,
        type: 3}
      propertyPath: m_LocalRotation.z
      value: 0
      objectReference: {fileID: 0}
    - target: {fileID: 5819202721268474497, guid: 265efe6460d31474ba13e1671e516f1e,
        type: 3}
      propertyPath: m_LocalRotation.w
      value: 1
      objectReference: {fileID: 0}
    - target: {fileID: 5819202721268474497, guid: 265efe6460d31474ba13e1671e516f1e,
        type: 3}
      propertyPath: m_RootOrder
      value: 1
      objectReference: {fileID: 0}
    - target: {fileID: 5819202721268474497, guid: 265efe6460d31474ba13e1671e516f1e,
        type: 3}
      propertyPath: m_LocalEulerAnglesHint.x
      value: 0
      objectReference: {fileID: 0}
    - target: {fileID: 5819202721268474497, guid: 265efe6460d31474ba13e1671e516f1e,
        type: 3}
      propertyPath: m_LocalEulerAnglesHint.y
      value: 0
      objectReference: {fileID: 0}
    - target: {fileID: 5819202721268474497, guid: 265efe6460d31474ba13e1671e516f1e,
        type: 3}
      propertyPath: m_LocalEulerAnglesHint.z
      value: 0
      objectReference: {fileID: 0}
    - target: {fileID: 5819202721268474497, guid: 265efe6460d31474ba13e1671e516f1e,
        type: 3}
      propertyPath: m_AnchoredPosition.x
      value: 758.54
      objectReference: {fileID: 0}
    - target: {fileID: 5819202721268474497, guid: 265efe6460d31474ba13e1671e516f1e,
        type: 3}
      propertyPath: m_AnchoredPosition.y
      value: 419
      objectReference: {fileID: 0}
    - target: {fileID: 5819202721268474497, guid: 265efe6460d31474ba13e1671e516f1e,
        type: 3}
      propertyPath: m_SizeDelta.x
      value: 1517.0481
      objectReference: {fileID: 0}
    - target: {fileID: 5819202721268474497, guid: 265efe6460d31474ba13e1671e516f1e,
        type: 3}
      propertyPath: m_SizeDelta.y
      value: 191.9379
      objectReference: {fileID: 0}
    - target: {fileID: 5819202721268474497, guid: 265efe6460d31474ba13e1671e516f1e,
        type: 3}
      propertyPath: m_AnchorMin.x
      value: 0
      objectReference: {fileID: 0}
    - target: {fileID: 5819202721268474497, guid: 265efe6460d31474ba13e1671e516f1e,
        type: 3}
      propertyPath: m_AnchorMin.y
      value: 0
      objectReference: {fileID: 0}
    - target: {fileID: 5819202721268474497, guid: 265efe6460d31474ba13e1671e516f1e,
        type: 3}
      propertyPath: m_AnchorMax.x
      value: 0
      objectReference: {fileID: 0}
    - target: {fileID: 5819202721268474497, guid: 265efe6460d31474ba13e1671e516f1e,
        type: 3}
      propertyPath: m_AnchorMax.y
      value: 0
      objectReference: {fileID: 0}
    - target: {fileID: 5819202721268474497, guid: 265efe6460d31474ba13e1671e516f1e,
        type: 3}
      propertyPath: m_Pivot.x
      value: 0.5
      objectReference: {fileID: 0}
    - target: {fileID: 5819202721268474497, guid: 265efe6460d31474ba13e1671e516f1e,
        type: 3}
      propertyPath: m_Pivot.y
      value: 0.5
      objectReference: {fileID: 0}
    m_RemovedComponents: []
  m_SourcePrefab: {fileID: 100100000, guid: 265efe6460d31474ba13e1671e516f1e, type: 3}
--- !u!224 &3847303488652981383 stripped
RectTransform:
  m_CorrespondingSourceObject: {fileID: 5819202721268474497, guid: 265efe6460d31474ba13e1671e516f1e,
    type: 3}
  m_PrefabInstance: {fileID: 7324445261919000070}
  m_PrefabAsset: {fileID: 0}
